Name,Description,Tag
Name,Name,coname
DividendYieldPercent,DividendYieldPercent,yie
LongTermDeptToEquity,LongTermDeptToEquity,qto
MarketCapitalizationInMillion,MarketCapitalizationInMillion,mkt
NetProfitMarginPercent,NetProfitMarginPercent,qpm
OneDayPriceChangePercent,OneDayPriceChangePercent,pr1
PriceEarningsRatio,PriceEarningsRatio,pee
PriceToBookValue,PriceToBookValue,pri
PriceToFreeCashFlow,PriceToFreeCashFlow,prf
ReturnOnEquityPercent,ReturnOnEquityPercent,ttm
